{"name":"The authorized admin can looking a user","id":"testing-for-the-different-methods-of-one-api;the-authorized-admin-can-looking-a-user","testSteps":[{"number":1,"description":"Given The user admin get to web services","duration":41,"startTime":"2022-05-17T20:12:30.233-05:00[America/Bogota]","result":"SUCCESS","precondition":false,"level":0},{"number":2,"description":"When the admin look a user to the BD","duration":2306,"startTime":"2022-05-17T20:12:30.280-05:00[America/Bogota]","result":"SUCCESS","precondition":false,"level":0,"children":[{"number":3,"description":"Admin get users","duration":2137,"startTime":"2022-05-17T20:12:30.423-05:00[America/Bogota]","result":"SUCCESS","precondition":false,"level":1,"children":[{"number":4,"description":"Admin executes a GET on the resource /api/users?page\u003d2","duration":2121,"startTime":"2022-05-17T20:12:30.436-05:00[America/Bogota]","result":"SUCCESS","precondition":false,"level":2,"children":[{"number":5,"description":"GET https://reqres.in/api/users?page\u003d2","duration":1,"startTime":"2022-05-17T20:12:32.551-05:00[America/Bogota]","result":"SUCCESS","restQuery":{"method":"GET","path":"https://reqres.in/api/users?page\u003d2","content":"","contentType":"application/json","requestHeaders":"Accept\u003d*/*\n\t\t\t\tContent-Type\u003dapplication/json; charset\u003dUTF-8","requestCookies":"","responseHeaders":"Date: Wed, 18 May 2022 01:12:32 GMT\nContent-Type: application/json; charset\u003dutf-8\nTransfer-Encoding: chunked\nConnection: keep-alive\nX-Powered-By: Express\nAccess-Control-Allow-Origin: *\nEtag: W/\"406-ut0vzoCuidvyMf8arZpMpJ6ZRDw\"\nVia: 1.1 vegur\nCache-Control: max-age\u003d14400\nCF-Cache-Status: HIT\nAge: 6308\nExpect-CT: max-age\u003d604800, report-uri\u003d\"https://report-uri.cloudflare.com/cdn-cgi/beacon/expect-ct\"\nReport-To: {\"endpoints\":[{\"url\":\"https:\\/\\/a.nel.cloudflare.com\\/report\\/v3?s\u003dGecyvCFNvISQ3E45dOqua4nQ57tjXGVKPJjYWtW0IyykKSKEEvOIeS%2BzTV9QdBEY7MUu%2BxFzNXHju1Z2C5Ku6d7%2Bv1tyuS7%2BnEuRpYmIijUX8MargpNDKL%2BjAvM%3D\"}],\"group\":\"cf-nel\",\"max_age\":604800}\nNEL: {\"success_fraction\":0,\"report_to\":\"cf-nel\",\"max_age\":604800}\nVary: Accept-Encoding\nServer: cloudflare\nCF-RAY: 70d0b9a36817c202-MDE\nContent-Encoding: gzip\nalt-svc: h3\u003d\":443\"; ma\u003d86400, h3-29\u003d\":443\"; ma\u003d86400","responseCookies":"","responseBody":"{\n    \"page\": 2,\n    \"per_page\": 6,\n    \"total\": 12,\n    \"total_pages\": 2,\n    \"data\": [\n        {\n            \"id\": 7,\n            \"email\": \"michael.lawson@reqres.in\",\n            \"first_name\": \"Michael\",\n            \"last_name\": \"Lawson\",\n            \"avatar\": \"https://reqres.in/img/faces/7-image.jpg\"\n        },\n        {\n            \"id\": 8,\n            \"email\": \"lindsay.ferguson@reqres.in\",\n            \"first_name\": \"Lindsay\",\n            \"last_name\": \"Ferguson\",\n            \"avatar\": \"https://reqres.in/img/faces/8-image.jpg\"\n        },\n        {\n            \"id\": 9,\n            \"email\": \"tobias.funke@reqres.in\",\n            \"first_name\": \"Tobias\",\n            \"last_name\": \"Funke\",\n            \"avatar\": \"https://reqres.in/img/faces/9-image.jpg\"\n        },\n        {\n            \"id\": 10,\n            \"email\": \"byron.fields@reqres.in\",\n            \"first_name\": \"Byron\",\n            \"last_name\": \"Fields\",\n            \"avatar\": \"https://reqres.in/img/faces/10-image.jpg\"\n        },\n        {\n            \"id\": 11,\n            \"email\": \"george.edwards@reqres.in\",\n            \"first_name\": \"George\",\n            \"last_name\": \"Edwards\",\n            \"avatar\": \"https://reqres.in/img/faces/11-image.jpg\"\n        },\n        {\n            \"id\": 12,\n            \"email\": \"rachel.howell@reqres.in\",\n            \"first_name\": \"Rachel\",\n            \"last_name\": \"Howell\",\n            \"avatar\": \"https://reqres.in/img/faces/12-image.jpg\"\n        }\n    ],\n    \"support\": {\n        \"url\": \"https://reqres.in/#support-heading\",\n        \"text\": \"To keep ReqRes free, contributions towards server costs are appreciated!\"\n    }\n}","statusCode":200},"precondition":false,"level":3}]}]},{"number":6,"description":"Admin response users","duration":21,"startTime":"2022-05-17T20:12:32.564-05:00[America/Bogota]","result":"SUCCESS","precondition":false,"level":1}]},{"number":7,"description":"Then the requested data are returned","duration":278,"startTime":"2022-05-17T20:12:32.586-05:00[America/Bogota]","result":"SUCCESS","precondition":false,"level":0,"children":[{"number":8,"description":"all the expected users should be returned","duration":227,"startTime":"2022-05-17T20:12:32.636-05:00[America/Bogota]","result":"SUCCESS","precondition":false,"level":1}]}],"userStory":{"id":"testing-for-the-different-methods-of-one-api","storyName":"Testing for the different methods of one API","path":"AutomationApi.feature","narrative":"  Users should be able to submit\n  GET, DELETE and POST requests to a web service","type":"feature"},"featureTag":{"name":"Testing for the different methods of one API","type":"feature","displayName":"Testing for the different methods of one API"},"title":"The authorized admin can looking a user","description":"","backgroundTitle":"","backgroundDescription":"","tags":[{"name":"GET_ALL","type":"tag","displayName":"GET_ALL"},{"name":"Testing for the different methods of one API","type":"feature","displayName":"Testing for the different methods of one API"}],"startTime":"2022-05-17T20:12:30.139-05:00[America/Bogota]","duration":2728,"projectKey":"","isManualTestingUpToDate":false,"manual":false,"testSource":"Cucumber","actors":[{"name":"Admin","can":["call an API at https://reqres.in"]}],"result":"SUCCESS"}